<?xml version="1.0" encoding="utf-8"?>
<!-- Generator: Adobe Illustrator 19.2.1, SVG Export Plug-In . SVG Version: 6.00 Build 0)  -->
<svg version="1.1" id="Layer_1" xmlns="http://www.w3.org/2000/svg" xmlns:xlink="http://www.w3.org/1999/xlink" x="0px" y="0px"
	 viewBox="0 0 10 10" style="enable-background:new 0 0 10 10;" xml:space="preserve">
<style type="text/css">
	.st0{fill:#B2D236;}
</style>
<g>
	<path class="st0" d="M5,10c-2.8,0-5-2.2-5-5s2.2-5,5-5s5,2.2,5,5S7.8,10,5,10z M5,3C3.9,3,3,3.9,3,5s0.9,2,2,2s2-0.9,2-2S6.1,3,5,3
		z"/>
</g>
<circle cx="5" cy="5" r="2"/>
</svg>
